-- Merging decision tree log ---
manifest
ADDED from /home/vasu/StudioProjects2/cabi_camera/app/src/main/AndroidManifest.xml:2:1-86:12
	package
		ADDED from /home/vasu/StudioProjects2/cabi_camera/app/src/main/AndroidManifest.xml:3:5-30
		INJECTED from /home/vasu/StudioProjects2/cabi_camera/app/src/main/AndroidManifest.xml
		INJECTED from /home/vasu/StudioProjects2/cabi_camera/app/src/main/AndroidManifest.xml
	android:versionName
		ADDED from /home/vasu/StudioProjects2/cabi_camera/app/src/main/AndroidManifest.xml:5:5-30
		INJECTED from /home/vasu/StudioProjects2/cabi_camera/app/src/main/AndroidManifest.xml
		INJECTED from /home/vasu/StudioProjects2/cabi_camera/app/src/main/AndroidManifest.xml
	android:versionCode
		ADDED from /home/vasu/StudioProjects2/cabi_camera/app/src/main/AndroidManifest.xml:4:5-28
		INJECTED from /home/vasu/StudioProjects2/cabi_camera/app/src/main/AndroidManifest.xml
		INJECTED from /home/vasu/StudioProjects2/cabi_camera/app/src/main/AndroidManifest.xml
	xmlns:android
		ADDED from /home/vasu/StudioProjects2/cabi_camera/app/src/main/AndroidManifest.xml:2:11-69
uses-sdk
ADDED from /home/vasu/StudioProjects2/cabi_camera/app/src/main/AndroidManifest.xml:7:5-9:41
MERGED from [cabi_camera:volley:unspecified] /home/vasu/StudioProjects2/cabi_camera/app/build/intermediates/exploded-aar/cabi_camera/volley/unspecified/AndroidManifest.xml:7:5-9:40
MERGED from [com.android.support:appcompat-v7:23.1.1] /home/vasu/StudioProjects2/cabi_camera/app/build/intermediates/exploded-aar/com.android.support/appcompat-v7/23.1.1/AndroidManifest.xml:20:5-43
MERGED from [com.android.support:support-v4:23.1.1] /home/vasu/StudioProjects2/cabi_camera/app/build/intermediates/exploded-aar/com.android.support/support-v4/23.1.1/AndroidManifest.xml:20:5-43
MERGED from [com.android.support:support-v4:23.1.1] /home/vasu/StudioProjects2/cabi_camera/app/build/intermediates/exploded-aar/com.android.support/support-v4/23.1.1/AndroidManifest.xml:20:5-43
MERGED from [com.android.support:design:23.1.1] /home/vasu/StudioProjects2/cabi_camera/app/build/intermediates/exploded-aar/com.android.support/design/23.1.1/AndroidManifest.xml:20:5-43
MERGED from [com.android.support:appcompat-v7:23.1.1] /home/vasu/StudioProjects2/cabi_camera/app/build/intermediates/exploded-aar/com.android.support/appcompat-v7/23.1.1/AndroidManifest.xml:20:5-43
MERGED from [com.android.support:support-v4:23.1.1] /home/vasu/StudioProjects2/cabi_camera/app/build/intermediates/exploded-aar/com.android.support/support-v4/23.1.1/AndroidManifest.xml:20:5-43
MERGED from [com.android.support:recyclerview-v7:23.1.1] /home/vasu/StudioProjects2/cabi_camera/app/build/intermediates/exploded-aar/com.android.support/recyclerview-v7/23.1.1/AndroidManifest.xml:20:5-43
MERGED from [com.android.support:support-v4:23.1.1] /home/vasu/StudioProjects2/cabi_camera/app/build/intermediates/exploded-aar/com.android.support/support-v4/23.1.1/AndroidManifest.xml:20:5-43
MERGED from [com.android.support:support-v4:23.1.1] /home/vasu/StudioProjects2/cabi_camera/app/build/intermediates/exploded-aar/com.android.support/support-v4/23.1.1/AndroidManifest.xml:20:5-43
	android:targetSdkVersion
		ADDED from /home/vasu/StudioProjects2/cabi_camera/app/src/main/AndroidManifest.xml:9:9-38
		INJECTED from /home/vasu/StudioProjects2/cabi_camera/app/src/main/AndroidManifest.xml
		INJECTED from /home/vasu/StudioProjects2/cabi_camera/app/src/main/AndroidManifest.xml
	android:minSdkVersion
		ADDED from /home/vasu/StudioProjects2/cabi_camera/app/src/main/AndroidManifest.xml:8:9-35
		INJECTED from /home/vasu/StudioProjects2/cabi_camera/app/src/main/AndroidManifest.xml
		INJECTED from /home/vasu/StudioProjects2/cabi_camera/app/src/main/AndroidManifest.xml
uses-permission#android.permission.WAKE_LOCK
ADDED from /home/vasu/StudioProjects2/cabi_camera/app/src/main/AndroidManifest.xml:11:1-63
	android:name
		ADDED from /home/vasu/StudioProjects2/cabi_camera/app/src/main/AndroidManifest.xml:11:18-61
uses-permission#android.permission.CAMERA
ADDED from /home/vasu/StudioProjects2/cabi_camera/app/src/main/AndroidManifest.xml:12:5-64
	android:name
		ADDED from /home/vasu/StudioProjects2/cabi_camera/app/src/main/AndroidManifest.xml:12:22-62
uses-feature#android.hardware.Camera
ADDED from /home/vasu/StudioProjects2/cabi_camera/app/src/main/AndroidManifest.xml:13:2-80
	android:required
		ADDED from /home/vasu/StudioProjects2/cabi_camera/app/src/main/AndroidManifest.xml:13:55-78
	android:name
		ADDED from /home/vasu/StudioProjects2/cabi_camera/app/src/main/AndroidManifest.xml:13:16-54
uses-permission#android.permission.RECORD_VIDEO
ADDED from /home/vasu/StudioProjects2/cabi_camera/app/src/main/AndroidManifest.xml:14:2-68
	android:name
		ADDED from /home/vasu/StudioProjects2/cabi_camera/app/src/main/AndroidManifest.xml:14:19-65
uses-permission#android.permission.RECORD_AUDIO
ADDED from /home/vasu/StudioProjects2/cabi_camera/app/src/main/AndroidManifest.xml:15:5-70
	android:name
		ADDED from /home/vasu/StudioProjects2/cabi_camera/app/src/main/AndroidManifest.xml:15:22-68
uses-permission#android.permission.WRITE_EXTERNAL_STORAGE
ADDED from /home/vasu/StudioProjects2/cabi_camera/app/src/main/AndroidManifest.xml:16:5-80
	android:name
		ADDED from /home/vasu/StudioProjects2/cabi_camera/app/src/main/AndroidManifest.xml:16:22-78
uses-permission#android.permission.INTERNET
ADDED from /home/vasu/StudioProjects2/cabi_camera/app/src/main/AndroidManifest.xml:17:5-67
	android:name
		ADDED from /home/vasu/StudioProjects2/cabi_camera/app/src/main/AndroidManifest.xml:17:22-64
uses-permission#android.permission.ACCESS_COARSE_LOCATION
ADDED from /home/vasu/StudioProjects2/cabi_camera/app/src/main/AndroidManifest.xml:18:5-81
	android:name
		ADDED from /home/vasu/StudioProjects2/cabi_camera/app/src/main/AndroidManifest.xml:18:22-78
uses-permission#android.permission.ACCESS_FINE_LOCATION
ADDED from /home/vasu/StudioProjects2/cabi_camera/app/src/main/AndroidManifest.xml:19:5-79
	android:name
		ADDED from /home/vasu/StudioProjects2/cabi_camera/app/src/main/AndroidManifest.xml:19:22-76
uses-permission#android.permission.RECEIVE_BOOT_COMPLETED
ADDED from /home/vasu/StudioProjects2/cabi_camera/app/src/main/AndroidManifest.xml:20:5-81
	android:name
		ADDED from /home/vasu/StudioProjects2/cabi_camera/app/src/main/AndroidManifest.xml:20:22-78
uses-permission#android.permission.CHANGE_NETWORK_STATE
ADDED from /home/vasu/StudioProjects2/cabi_camera/app/src/main/AndroidManifest.xml:21:2-76
	android:name
		ADDED from /home/vasu/StudioProjects2/cabi_camera/app/src/main/AndroidManifest.xml:21:19-73
uses-permission#android.permission.ACCESS_NETWORK_STATE
ADDED from /home/vasu/StudioProjects2/cabi_camera/app/src/main/AndroidManifest.xml:22:2-75
	android:name
		ADDED from /home/vasu/StudioProjects2/cabi_camera/app/src/main/AndroidManifest.xml:22:19-73
uses-permission#android.permission.CHANGE_WIFI_STATE
ADDED from /home/vasu/StudioProjects2/cabi_camera/app/src/main/AndroidManifest.xml:23:2-72
	android:name
		ADDED from /home/vasu/StudioProjects2/cabi_camera/app/src/main/AndroidManifest.xml:23:19-70
uses-permission#android.permission.ACCESS_WIFI_STATE
ADDED from /home/vasu/StudioProjects2/cabi_camera/app/src/main/AndroidManifest.xml:24:2-72
	android:name
		ADDED from /home/vasu/StudioProjects2/cabi_camera/app/src/main/AndroidManifest.xml:24:19-70
uses-permission#android.permission.BLUETOOTH
ADDED from /home/vasu/StudioProjects2/cabi_camera/app/src/main/AndroidManifest.xml:25:5-68
	android:name
		ADDED from /home/vasu/StudioProjects2/cabi_camera/app/src/main/AndroidManifest.xml:25:22-65
uses-permission#android.permission.BLUETOOTH_ADMIN
ADDED from /home/vasu/StudioProjects2/cabi_camera/app/src/main/AndroidManifest.xml:26:5-74
	android:name
		ADDED from /home/vasu/StudioProjects2/cabi_camera/app/src/main/AndroidManifest.xml:26:22-71
uses-permission#android.permission.ACCESS_LOCATION_EXTRA_COMMANDS
ADDED from /home/vasu/StudioProjects2/cabi_camera/app/src/main/AndroidManifest.xml:28:5-89
	android:name
		ADDED from /home/vasu/StudioProjects2/cabi_camera/app/src/main/AndroidManifest.xml:28:22-86
uses-permission#android.permission.MODIFY_AUDIO_SETTINGS
ADDED from /home/vasu/StudioProjects2/cabi_camera/app/src/main/AndroidManifest.xml:29:5-79
	android:name
		ADDED from /home/vasu/StudioProjects2/cabi_camera/app/src/main/AndroidManifest.xml:29:22-77
uses-feature#android.hardware.camera
ADDED from /home/vasu/StudioProjects2/cabi_camera/app/src/main/AndroidManifest.xml:30:5-59
	android:name
		ADDED from /home/vasu/StudioProjects2/cabi_camera/app/src/main/AndroidManifest.xml:30:19-57
uses-feature#android.hardware.camera.autofocus
ADDED from /home/vasu/StudioProjects2/cabi_camera/app/src/main/AndroidManifest.xml:31:5-69
	android:name
		ADDED from /home/vasu/StudioProjects2/cabi_camera/app/src/main/AndroidManifest.xml:31:19-67
application
ADDED from /home/vasu/StudioProjects2/cabi_camera/app/src/main/AndroidManifest.xml:33:5-84:19
MERGED from [cabi_camera:volley:unspecified] /home/vasu/StudioProjects2/cabi_camera/app/build/intermediates/exploded-aar/cabi_camera/volley/unspecified/AndroidManifest.xml:11:5-20
MERGED from [com.android.support:appcompat-v7:23.1.1] /home/vasu/StudioProjects2/cabi_camera/app/build/intermediates/exploded-aar/com.android.support/appcompat-v7/23.1.1/AndroidManifest.xml:22:5-20
MERGED from [com.android.support:support-v4:23.1.1] /home/vasu/StudioProjects2/cabi_camera/app/build/intermediates/exploded-aar/com.android.support/support-v4/23.1.1/AndroidManifest.xml:22:5-20
MERGED from [com.android.support:support-v4:23.1.1] /home/vasu/StudioProjects2/cabi_camera/app/build/intermediates/exploded-aar/com.android.support/support-v4/23.1.1/AndroidManifest.xml:22:5-20
MERGED from [com.android.support:design:23.1.1] /home/vasu/StudioProjects2/cabi_camera/app/build/intermediates/exploded-aar/com.android.support/design/23.1.1/AndroidManifest.xml:22:5-20
MERGED from [com.android.support:appcompat-v7:23.1.1] /home/vasu/StudioProjects2/cabi_camera/app/build/intermediates/exploded-aar/com.android.support/appcompat-v7/23.1.1/AndroidManifest.xml:22:5-20
MERGED from [com.android.support:support-v4:23.1.1] /home/vasu/StudioProjects2/cabi_camera/app/build/intermediates/exploded-aar/com.android.support/support-v4/23.1.1/AndroidManifest.xml:22:5-20
MERGED from [com.android.support:support-v4:23.1.1] /home/vasu/StudioProjects2/cabi_camera/app/build/intermediates/exploded-aar/com.android.support/support-v4/23.1.1/AndroidManifest.xml:22:5-20
MERGED from [com.android.support:support-v4:23.1.1] /home/vasu/StudioProjects2/cabi_camera/app/build/intermediates/exploded-aar/com.android.support/support-v4/23.1.1/AndroidManifest.xml:22:5-20
	android:label
		ADDED from /home/vasu/StudioProjects2/cabi_camera/app/src/main/AndroidManifest.xml:37:9-41
	android:allowBackup
		ADDED from /home/vasu/StudioProjects2/cabi_camera/app/src/main/AndroidManifest.xml:35:9-35
	android:icon
		ADDED from /home/vasu/StudioProjects2/cabi_camera/app/src/main/AndroidManifest.xml:36:9-45
	android:theme
		ADDED from /home/vasu/StudioProjects2/cabi_camera/app/src/main/AndroidManifest.xml:38:9-40
	android:name
		ADDED from /home/vasu/StudioProjects2/cabi_camera/app/src/main/AndroidManifest.xml:34:9-61
activity#com.xvidia.cabi.service.StartActivity
ADDED from /home/vasu/StudioProjects2/cabi_camera/app/src/main/AndroidManifest.xml:39:9-47:20
	android:label
		ADDED from /home/vasu/StudioProjects2/cabi_camera/app/src/main/AndroidManifest.xml:41:13-45
	android:name
		ADDED from /home/vasu/StudioProjects2/cabi_camera/app/src/main/AndroidManifest.xml:40:13-65
intent-filter#android.intent.action.MAIN+android.intent.category.LAUNCHER
ADDED from /home/vasu/StudioProjects2/cabi_camera/app/src/main/AndroidManifest.xml:42:13-46:29
action#android.intent.action.MAIN
ADDED from /home/vasu/StudioProjects2/cabi_camera/app/src/main/AndroidManifest.xml:43:17-69
	android:name
		ADDED from /home/vasu/StudioProjects2/cabi_camera/app/src/main/AndroidManifest.xml:43:25-66
category#android.intent.category.LAUNCHER
ADDED from /home/vasu/StudioProjects2/cabi_camera/app/src/main/AndroidManifest.xml:45:17-77
	android:name
		ADDED from /home/vasu/StudioProjects2/cabi_camera/app/src/main/AndroidManifest.xml:45:27-74
activity#com.xvidia.cabi.service.PublishLiveStreamActivity
ADDED from /home/vasu/StudioProjects2/cabi_camera/app/src/main/AndroidManifest.xml:48:9-53:20
	android:screenOrientation
		ADDED from /home/vasu/StudioProjects2/cabi_camera/app/src/main/AndroidManifest.xml:52:13-50
	android:label
		ADDED from /home/vasu/StudioProjects2/cabi_camera/app/src/main/AndroidManifest.xml:50:13-45
	android:theme
		ADDED from /home/vasu/StudioProjects2/cabi_camera/app/src/main/AndroidManifest.xml:51:13-56
	android:name
		ADDED from /home/vasu/StudioProjects2/cabi_camera/app/src/main/AndroidManifest.xml:49:13-62
activity#com.xvidia.cabi.service.VideoRecorder
ADDED from /home/vasu/StudioProjects2/cabi_camera/app/src/main/AndroidManifest.xml:54:9-59:20
	android:screenOrientation
		ADDED from /home/vasu/StudioProjects2/cabi_camera/app/src/main/AndroidManifest.xml:58:13-56
	android:label
		ADDED from /home/vasu/StudioProjects2/cabi_camera/app/src/main/AndroidManifest.xml:57:13-45
	android:excludeFromRecents
		ADDED from /home/vasu/StudioProjects2/cabi_camera/app/src/main/AndroidManifest.xml:56:13-46
	android:name
		ADDED from /home/vasu/StudioProjects2/cabi_camera/app/src/main/AndroidManifest.xml:55:13-65
service#com.xvidia.cabi.service.LocationService
ADDED from /home/vasu/StudioProjects2/cabi_camera/app/src/main/AndroidManifest.xml:63:9-75
	android:name
		ADDED from /home/vasu/StudioProjects2/cabi_camera/app/src/main/AndroidManifest.xml:63:18-72
receiver#com.xvidia.cabi.broadcastReceiver.BootReceiver
ADDED from /home/vasu/StudioProjects2/cabi_camera/app/src/main/AndroidManifest.xml:72:9-76:20
	android:name
		ADDED from /home/vasu/StudioProjects2/cabi_camera/app/src/main/AndroidManifest.xml:72:19-65
intent-filter#android.intent.action.BOOT_COMPLETED
ADDED from /home/vasu/StudioProjects2/cabi_camera/app/src/main/AndroidManifest.xml:73:13-75:29
action#android.intent.action.BOOT_COMPLETED
ADDED from /home/vasu/StudioProjects2/cabi_camera/app/src/main/AndroidManifest.xml:74:17-79
	android:name
		ADDED from /home/vasu/StudioProjects2/cabi_camera/app/src/main/AndroidManifest.xml:74:25-76
